{
    "$schema": "https://json-schema.org/draft/2020-12/schema",
    "id": "https://schema.example.com/helm/common.json",
    "type": "object",
    "properties": {
        "global": {
            "type": "object",
            "description": "Global settings"
        },
        "nameOverride": {
            "type": "string"
        },
        "fullnameOverride": {
            "type": "string"
        }
    }
}